<?xml version="1.0" encoding="UTF-8" standalone="no"?>
<svg
   xmlns:dc="http://purl.org/dc/elements/1.1/"
   xmlns:cc="http://creativecommons.org/ns#"
   xmlns:rdf="http://www.w3.org/1999/02/22-rdf-syntax-ns#"
   xmlns:svg="http://www.w3.org/2000/svg"
   xmlns="http://www.w3.org/2000/svg"
   xmlns:sodipodi="http://sodipodi.sourceforge.net/DTD/sodipodi-0.dtd"
   xmlns:inkscape="http://www.inkscape.org/namespaces/inkscape"
   id="logo-imts"
   viewBox="0 0 66.145831 28.982812"
   height="109.54134"
   width="250"
   version="1.1"
   sodipodi:docname="logo.svg"
   inkscape:version="0.92.4 (5da689c313, 2019-01-14)">
  <sodipodi:namedview
     pagecolor="#ffffff"
     bordercolor="#666666"
     borderopacity="1"
     objecttolerance="10"
     gridtolerance="10"
     guidetolerance="10"
     inkscape:pageopacity="0"
     inkscape:pageshadow="2"
     inkscape:window-width="1148"
     inkscape:window-height="562"
     id="namedview16"
     showgrid="false"
     fit-margin-top="0"
     fit-margin-left="0"
     fit-margin-right="0"
     fit-margin-bottom="0"
     units="px"
     inkscape:zoom="2.412"
     inkscape:cx="125"
     inkscape:cy="54.770672"
     inkscape:window-x="0"
     inkscape:window-y="0"
     inkscape:window-maximized="0"
     inkscape:current-layer="logo-imts" />
  <metadata
     id="metadata18">
    <rdf:RDF>
      <cc:Work
         rdf:about="">
        <dc:format>image/svg+xml</dc:format>
        <dc:type
           rdf:resource="http://purl.org/dc/dcmitype/StillImage" />
        <dc:title></dc:title>
      </cc:Work>
    </rdf:RDF>
  </metadata>
  <defs
     id="defs16" />
  <g
     transform="matrix(0.18751054,0,0,0.18751054,18.479794,-3.2054189)"
     style="display:inline"
     id="layer2">
    <text
       xml:space="preserve"
       style="font-style:normal;font-weight:normal;font-size:38.21360397px;line-height:1.25;font-family:sans-serif;letter-spacing:0px;word-spacing:0px;fill:#000000;fill-opacity:1;stroke:none;stroke-width:0.95534015"
       x="-10.411242"
       y="133.32939"
       id="txt-mt"
       transform="scale(0.99435681,1.0056752)"><tspan
         id="tspan4586"
         x="-10.411242"
         y="133.32939"
         style="font-style:normal;font-variant:normal;font-weight:bold;font-stretch:normal;font-family:Candara;-inkscape-font-specification:'Candara Bold';fill:#000000;stroke-width:0.95534015"
         dy="0 0 0 0 0 0 0 0 0">MARIE-THÉRÈSE</tspan><tspan
         x="-10.411242"
         y="182.43985"
         style="font-style:normal;font-variant:normal;font-weight:bold;font-stretch:normal;font-family:Candara;-inkscape-font-specification:'Candara Bold';fill:#000000;stroke-width:0.95534015"
         id="tspan4588" /></text>
    <rect
       y="45.934216"
       x="-98.55336"
       height="29.499344"
       width="27.192398"
       id="rect851"
       style="fill:#8ebe1c;fill-opacity:1;stroke:none;stroke-width:1" />
    <rect
       y="67.355766"
       x="-56.136189"
       height="28.85565"
       width="27.187754"
       id="carre-rose"
       style="fill:#e7007c;fill-opacity:1;stroke:none;stroke-width:1" />
    <rect
       y="17.094606"
       x="-71.360962"
       height="28.839611"
       width="27.25209"
       id="carre-bleu"
       style="fill:#046db4;fill-opacity:1;stroke:none;stroke-width:1" />
    <text
       transform="scale(0.98077213,1.0196048)"
       id="txt-ins"
       y="95.145981"
       x="-11.052917"
       style="font-style:normal;font-weight:normal;font-size:29.00477028px;line-height:1.25;font-family:sans-serif;letter-spacing:0px;word-spacing:0px;fill:#000000;fill-opacity:1;stroke:none;stroke-width:0.72511923"
       xml:space="preserve"><tspan
         style="fill:#000000;stroke-width:0.72511923"
         y="95.145981"
         x="-11.052917"
         id="tspan4562">INSTITUT</tspan></text>
    <text
       transform="scale(0.97959792,1.020827)"
       id="text4568"
       y="167.49121"
       x="-11.628699"
       style="font-style:normal;font-weight:normal;font-size:37.97160339px;line-height:1.25;font-family:sans-serif;letter-spacing:0px;word-spacing:0px;fill:#000000;fill-opacity:1;stroke:none;stroke-width:0.94929022"
       xml:space="preserve"><tspan
         id="tspan4570"
         style="font-style:normal;font-variant:normal;font-weight:bold;font-stretch:normal;font-family:Candara;-inkscape-font-specification:'Candara Bold';fill:#000000;stroke-width:0.94929022"
         y="167.49121"
         x="-11.628699">SOLACROUP</tspan></text>
  </g>
</svg>
